{
  "_doc": {
    "properties": {
      "id": {
        "type": "long"
      },
      "name": {
        "type": "keyword"
      },
      "_class": {
        "type": "keyword"
      },
      "position": {
        "type": "keyword"
      },
      "age": {
        "type": "long"
      },
      "department": {
        "properties": {
          "id": {
            "type": "long"
          },
          "name": {
            "type": "keyword"
          }
        }
      },
      "organization": {
        "properties": {
          "id": {
            "type": "long"
          },
          "name": {
            "type": "keyword"
          },
          "address": {
            "type": "keyword"
          }
        }
      }

    }
  }
}